<?xml version="1.0" encoding="UTF-8" standalone="no"?>
<svg
   xmlns:dc="http://purl.org/dc/elements/1.1/"
   xmlns:cc="http://creativecommons.org/ns#"
   xmlns:rdf="http://www.w3.org/1999/02/22-rdf-syntax-ns#"
   xmlns:svg="http://www.w3.org/2000/svg"
   xmlns="http://www.w3.org/2000/svg"
   xmlns:xlink="http://www.w3.org/1999/xlink"
   xmlns:sodipodi="http://sodipodi.sourceforge.net/DTD/sodipodi-0.dtd"
   xmlns:inkscape="http://www.inkscape.org/namespaces/inkscape"
   version="1.0"
   id="svg7229"
   height="22"
   width="22"
   sodipodi:docname="media.svg"
   inkscape:version="0.92.2 2405546, 2018-03-11">
  <sodipodi:namedview
     pagecolor="#ffffff"
     bordercolor="#666666"
     borderopacity="1"
     objecttolerance="10"
     gridtolerance="10"
     guidetolerance="10"
     inkscape:pageopacity="0"
     inkscape:pageshadow="2"
     inkscape:window-width="640"
     inkscape:window-height="480"
     id="namedview43"
     showgrid="false"
     inkscape:zoom="21.454545"
     inkscape:cx="14.975503"
     inkscape:cy="11.420231"
     inkscape:current-layer="layer1"
     showguides="true"
     inkscape:guide-bbox="true">
    <sodipodi:guide
       position="59.055086,10.813559"
       orientation="1,0"
       id="guide917"
       inkscape:locked="false" />
    <sodipodi:guide
       position="11.00821,11.074011"
       orientation="0,1"
       id="guide919"
       inkscape:locked="false" />
    <sodipodi:guide
       position="52.11017,10.813559"
       orientation="1,0"
       id="guide921"
       inkscape:locked="false" />
    <sodipodi:guide
       position="65.906781,10.813559"
       orientation="1,0"
       id="guide923"
       inkscape:locked="false" />
    <sodipodi:guide
       position="59.00726,17.82873"
       orientation="0,1"
       id="guide925"
       inkscape:locked="false" />
    <sodipodi:guide
       position="59.055086,4.0084746"
       orientation="0,1"
       id="guide927"
       inkscape:locked="false" />
    <sodipodi:guide
       position="11.00821,17.828732"
       orientation="1,0"
       id="guide877"
       inkscape:locked="false" />
    <sodipodi:guide
       position="23.631356,14.262712"
       orientation="0,1"
       id="guide887"
       inkscape:locked="false" />
    <sodipodi:guide
       position="22.885594,7.131356"
       orientation="0,1"
       id="guide889"
       inkscape:locked="false" />
  </sodipodi:namedview>
  <metadata
     id="metadata45">
    <rdf:RDF>
      <cc:Work
         rdf:about="">
        <dc:format>image/svg+xml</dc:format>
        <dc:type
           rdf:resource="http://purl.org/dc/dcmitype/StillImage" />
        <dc:title />
      </cc:Work>
    </rdf:RDF>
  </metadata>
  <defs
     id="defs7231">
    <linearGradient
       id="linearGradient894"
       inkscape:collect="always">
      <stop
         id="stop946"
         offset="0"
         style="stop-color:#ffd60a;stop-opacity:1" />
      <stop
         id="stop948"
         offset="1"
         style="stop-color:#f22b10;stop-opacity:1" />
    </linearGradient>
    <linearGradient
       inkscape:collect="always"
       id="linearGradient894-6">
      <stop
         style="stop-color:#ff3b30;stop-opacity:1"
         offset="0"
         id="stop890" />
      <stop
         style="stop-color:#330013;stop-opacity:1"
         offset="1"
         id="stop892" />
    </linearGradient>
    <style
       type="text/css"
       id="current-color-scheme">
      .ColorScheme-Text {
        color:#31363b;
      }
      .ColorScheme-Background{
        color:#eff0f1;
      }
      .ColorScheme-ViewText {
        color:#31363b;
      }
      .ColorScheme-ViewBackground{
        color:#ffffff;
      }
      .ColorScheme-ViewHover {
        color:#000000;
      }
      .ColorScheme-ViewFocus{
        color:#5a5a5a;
      }
      .ColorScheme-ButtonText {
        color:#31363b;
      }
      .ColorScheme-ButtonBackground{
        color:#E9E8E8;
      }
      .ColorScheme-ButtonHover {
        color:#1489ff;
      }
      .ColorScheme-ButtonFocus{
        color:#2B74C7;
      }
</style>
    <linearGradient
       gradientTransform="matrix(3.2924111,0,0,3.2924111,-204.71073,-3167.4219)"
       id="a"
       gradientUnits="userSpaceOnUse"
       x1="407.82129"
       x2="407.82129"
       y1="546.28699"
       y2="501.50928">
      <stop
         offset="0"
         stop-color="#00a199"
         id="stop2"
         style="stop-color:#32d74b;stop-opacity:1" />
      <stop
         offset="1"
         stop-color="#00f89a"
         stop-opacity=".988235"
         id="stop4"
         style="stop-color:#003e40;stop-opacity:0.98823529" />
    </linearGradient>
    <linearGradient
       inkscape:collect="always"
       xlink:href="#linearGradient894-6"
       id="linearGradient896"
       x1="408.1647"
       y1="501.56467"
       x2="408.07608"
       y2="546.03217"
       gradientUnits="userSpaceOnUse" />
    <linearGradient
       inkscape:collect="always"
       xlink:href="#a"
       id="linearGradient935"
       x1="407.14664"
       y1="501.33792"
       x2="406.52191"
       y2="545.89435"
       gradientUnits="userSpaceOnUse" />
    <linearGradient
       inkscape:collect="always"
       xlink:href="#linearGradient894"
       id="linearGradient955"
       gradientUnits="userSpaceOnUse"
       x1="408.1647"
       y1="501.56467"
       x2="408.07608"
       y2="546.03217" />
    <linearGradient
       inkscape:collect="always"
       xlink:href="#linearGradient894"
       id="linearGradient897"
       x1="407.76184"
       y1="501.51474"
       x2="407.76184"
       y2="545.7829"
       gradientUnits="userSpaceOnUse" />
  </defs>
  <g
     transform="translate(-214.53572,-404.50504)"
     id="layer1">
    <g
       class="ColorScheme-Text"
       style="color:#31363b;fill:currentColor"
       id="media-playback-pause"
       transform="matrix(1.4999765,0,0,1.4999765,209.03579,-1146.5136)">
      <rect
         y="1034.0287"
         x="3.6666775"
         height="14.666837"
         width="14.666897"
         id="rect3003-0"
         style="opacity:0.01000001;fill:#ed1515;fill-opacity:0.00392157;stroke:none" />
      <g
         transform="matrix(0.31166503,0,0,0.31166503,-116.07951,878.08138)"
         id="g941"
         style="stroke-width:3.29241109">
        <circle
           cx="407.82129"
           cy="523.89813"
           r="22.388863"
           id="circle937"
           style="fill:url(#linearGradient955);fill-opacity:1;stroke-width:3.29241109" />
        <ellipse
           style="opacity:1;fill:#ffffff;fill-opacity:0.82352941;stroke-width:7.04273701;paint-order:stroke fill markers"
           id="path879"
           cx="407.86572"
           cy="523.95551"
           rx="14.627017"
           ry="14.747369" />
        <path
           class="ColorScheme-Text"
           d="m 410.41648,516.32823 h 5.10151 v 15.25456 h -5.10151 z m -10.20302,0 h 5.1015 v 15.25456 h -5.1015 z"
           style="color:#31363b;fill:url(#linearGradient897);fill-opacity:1;stroke-width:3.20857286"
           id="rect3287-9"
           inkscape:connector-curvature="0" />
      </g>
    </g>
    <g
       class="ColorScheme-Text"
       style="color:#31363b;fill:currentColor"
       id="media-playback-start"
       transform="matrix(1.4999765,0,0,1.4999765,233.03531,-1146.5136)">
      <rect
         y="1034.0287"
         x="3.6906753"
         height="14.666837"
         width="14.666897"
         id="rect3003-1"
         style="opacity:0.01000001;fill:#ed1515;fill-opacity:0.00392157;stroke:none" />
      <g
         transform="matrix(0.31166503,0,0,0.31166503,-116.07951,878.08138)"
         id="g11"
         style="stroke-width:3.29241109">
        <circle
           id="circle7"
           style="fill:url(#linearGradient935);fill-opacity:1;stroke-width:3.29241109"
           r="22.388863"
           cy="523.89813"
           cx="407.82129" />
        <path
           d="m 415.30451,524.53404 -12.70273,-7.62164 v 15.24327 z m -7.54266,-15.24323 c 8.09838,0 14.61803,6.51965 14.61803,14.61805 0,8.09838 -6.51965,14.61803 -14.61803,14.61803 -8.0984,0 -14.61805,-6.51965 -14.61805,-14.61803 0,-8.0984 6.51965,-14.61805 14.61805,-14.61805 z"
           id="path9"
           inkscape:connector-curvature="0"
           style="fill:#ffffff;fill-opacity:0.82741101;fill-rule:evenodd;stroke-width:3.29241109" />
      </g>
    </g>
    <g
       style="fill:#31363b"
       id="media-playback-stop"
       transform="matrix(1.4999765,0,0,1.4999765,257.03484,-1146.5136)">
      <rect
         y="1034.0287"
         x="3.6673107"
         height="14.666837"
         width="14.666897"
         id="rect3003-3"
         style="opacity:0.01000001;fill:#ed1515;fill-opacity:0.00392157;stroke:none" />
      <g
         style="stroke-width:3.29241109"
         id="g860"
         transform="matrix(0.31166503,0,0,0.31166503,-116.07951,878.08138)">
        <circle
           style="fill:url(#linearGradient896);fill-opacity:1;stroke-width:3.29241109"
           id="circle856"
           r="22.388863"
           cy="523.89813"
           cx="407.82129" />
        <path
           style="fill:#ffffff;fill-opacity:0.82741101;fill-rule:evenodd;stroke-width:3.29241109"
           inkscape:connector-curvature="0"
           id="path858"
           d="m 415.19468,516.93733 h -7.31871 -7.31872 v 7.61339 7.61339 h 7.31872 7.31871 v -7.59122 z m -7.43283,-7.64652 c 8.09838,0 14.61803,6.51965 14.61803,14.61805 0,8.09838 -6.51965,14.61803 -14.61803,14.61803 -8.0984,0 -14.61805,-6.51965 -14.61805,-14.61803 0,-8.0984 6.51965,-14.61805 14.61805,-14.61805 z"
           sodipodi:nodetypes="cccccccccsssss" />
      </g>
    </g>
    <g
       id="media-record"
       transform="matrix(1.4999765,0,0,1.4999765,281.03438,-1146.5136)">
      <rect
         y="1034.0287"
         x="3.6676176"
         height="14.666837"
         width="14.666897"
         id="rect3003-03"
         style="opacity:0.01000001;fill:#ed1515;fill-opacity:0.00392157;stroke:none" />
      <rect
         style="fill:#da4453"
         id="rect3274-0"
         width="10.661418"
         height="10.664993"
         x="5.669291"
         y="1036.0297"
         ry="5.3324966" />
    </g>
    <g
       class="ColorScheme-Text"
       style="color:#31363b;fill:#d2d2d2;fill-opacity:1"
       id="media-seek-backward"
       transform="matrix(1.4999765,0,0,1.4999765,305.03389,-1146.5136)">
      <rect
         y="1034.0287"
         x="3.6679442"
         height="14.666837"
         width="14.666897"
         id="rect3003-07"
         style="opacity:0.01000001;fill:#d2d2d2;fill-opacity:1;stroke:none" />
      <path
         class="ColorScheme-Text"
         d="m 10.999999,1046.6926 -5.3316726,-5.3304 5.3316726,-5.3304 z m 5.33167,0 -5.33167,-5.3304 5.33167,-5.3304 z"
         style="color:#31363b;fill:#d2d2d2;fill-opacity:1"
         id="path4148-6"
         inkscape:connector-curvature="0" />
    </g>
    <g
       class="ColorScheme-Text"
       style="color:#31363b;fill:#d2d2d2;fill-opacity:1"
       id="media-seek-forward"
       transform="matrix(1.4999765,0,0,1.4999765,329.08783,-1146.5136)">
      <rect
         y="1034.0287"
         x="3.6319835"
         height="14.666837"
         width="14.666897"
         id="rect3003-2"
         style="opacity:0.01000001;fill:#d2d2d2;fill-opacity:1;stroke:none" />
      <path
         class="ColorScheme-Text"
         d="m 11.000001,1046.6956 5.362127,-5.3334 -5.362127,-5.3334 z m -5.3621229,0 5.3621229,-5.3334 -5.3621229,-5.3334 z"
         style="color:#31363b;fill:#d2d2d2;fill-opacity:1"
         id="path4148-8"
         inkscape:connector-curvature="0" />
    </g>
    <g
       class="ColorScheme-Text"
       style="color:#31363b;fill:#d2d2d2;fill-opacity:1"
       id="media-skip-backward"
       transform="matrix(1.4999765,0,0,1.4999765,353.03297,-1146.5136)">
      <rect
         y="1034.0287"
         x="3.6685574"
         height="14.666837"
         width="14.666897"
         id="rect3003-9"
         style="opacity:0.01000001;fill:#d2d2d2;fill-opacity:1;stroke:none" />
      <path
         class="ColorScheme-Text"
         id="rect3356-04"
         d="m 5.6605034,1036.0318 v 10.6605 h 3.561 v -5.3304 -5.3301 z m 3.561,5.3301 7.1220046,5.3304 v -10.6605 z"
         style="color:#31363b;fill:#d2d2d2;fill-opacity:1"
         inkscape:connector-curvature="0" />
    </g>
    <g
       class="ColorScheme-Text"
       style="color:#31363b;fill:#d2d2d2;fill-opacity:1"
       id="media-skip-forward"
       transform="matrix(1.4999765,0,0,1.4999765,377.03248,-1146.5136)">
      <rect
         y="1034.0287"
         x="3.668884"
         height="14.666837"
         width="14.666897"
         id="rect3003-7"
         style="opacity:0.01000001;fill:#d2d2d2;fill-opacity:1;stroke:none" />
      <path
         class="ColorScheme-Text"
         d="m 12.774348,1036.0314 h 3.548696 v 10.6616 h -3.548696 z m -7.0973961,10.6616 7.0974011,-5.3308 -7.0974011,-5.3308 z"
         style="color:#31363b;fill:#d2d2d2;fill-opacity:1"
         id="rect3402-4"
         inkscape:connector-curvature="0" />
    </g>
    <g
       id="media-eject"
       transform="matrix(1.2499744,0,0,1.2499744,404.28584,-886.17115)"
       style="fill:#d2d2d2;fill-opacity:1">
      <rect
         y="1032.5621"
         x="1.7999408"
         height="17.600325"
         width="17.600361"
         id="rect3003"
         style="opacity:0.01000001;fill:#d2d2d2;fill-opacity:1;stroke:none" />
      <path
         id="path6"
         class="ColorScheme-Text"
         d="m 10.600116,1034.9592 -7.1958529,8.5375 H 17.795969 Z m -7.1958529,10.5656 v 2.2406 H 17.795969 v -2.2406 z"
         style="color:#31363b;fill:#d2d2d2;fill-opacity:1"
         inkscape:connector-curvature="0" />
    </g>
    <g
       class="ColorScheme-Text"
       style="color:#31363b;fill:#d2d2d2;fill-opacity:1"
       id="media-playback-paused"
       transform="matrix(1.4999765,0,0,1.4999765,209.03579,-1122.5136)">
      <rect
         y="1034.0287"
         x="3.6666775"
         height="14.666837"
         width="14.666897"
         id="rect3003-0-3"
         style="opacity:0.01000001;fill:#d2d2d2;fill-opacity:1;stroke:none" />
      <path
         class="ColorScheme-Text"
         d="m 9.6665342,1043.3624 2.6669318,-2.0002 -2.6669318,-2.0002 z M 11,1036.0283 c -2.9549601,0 -5.333863,2.3789 -5.333863,5.3339 0,2.955 2.3789029,5.3339 5.333863,5.3339 2.95496,0 5.333863,-2.3789 5.333863,-5.3339 0,-2.955 -2.378903,-5.3339 -5.333863,-5.3339 z m 0,0.6668 c 2.58559,0 4.66713,2.0815 4.66713,4.6671 0,2.5856 -2.08154,4.6671 -4.66713,4.6671 -2.5855901,0 -4.6671301,-2.0815 -4.6671301,-4.6671 0,-2.5856 2.08154,-4.6671 4.6671301,-4.6671 z"
         style="color:#31363b;fill:#d2d2d2;fill-opacity:1;stroke:none"
         id="path3357-8-9"
         inkscape:connector-curvature="0" />
    </g>
    <g
       class="ColorScheme-Text"
       style="color:#31363b;fill:#d2d2d2;fill-opacity:1"
       id="media-playback-playing"
       transform="matrix(1.4999765,0,0,1.4999765,233.03531,-1122.5136)">
      <rect
         y="1034.0287"
         x="3.6669974"
         height="14.666837"
         width="14.666897"
         id="rect3003-1-2"
         style="opacity:0.01000001;fill:#d2d2d2;fill-opacity:1;stroke:none" />
      <path
         class="ColorScheme-Text"
         d="m 11.666692,1039.3621 h 1.333385 v 4.0002 h -1.333385 z m -2.6667693,0 h 1.3333853 v 4.0002 H 8.9999227 Z M 11,1036.0287 c -2.9547808,0 -5.3335394,2.3787 -5.3335394,5.3335 0,2.9548 2.3787586,5.3335 5.3335394,5.3335 2.954781,0 5.333539,-2.3787 5.333539,-5.3335 0,-2.9548 -2.378758,-5.3335 -5.333539,-5.3335 z m 0,0.6667 c 2.585433,0 4.666847,2.0813 4.666847,4.6668 0,2.5855 -2.081414,4.6668 -4.666847,4.6668 -2.5854332,0 -4.666847,-2.0813 -4.666847,-4.6668 0,-2.5855 2.0814138,-4.6668 4.666847,-4.6668 z"
         style="color:#31363b;fill:#d2d2d2;fill-opacity:1;stroke:none"
         id="rect3287-9-5"
         inkscape:connector-curvature="0" />
    </g>
    <g
       class="ColorScheme-Text"
       style="color:#31363b;fill:#d2d2d2;fill-opacity:1"
       id="media-playback-stopped"
       transform="matrix(1.4999765,0,0,1.4999765,257.03484,-1122.5136)">
      <rect
         y="1034.0287"
         x="3.6673107"
         height="14.666837"
         width="14.666897"
         id="rect3003-3-2"
         style="opacity:0.01000001;fill:#d2d2d2;fill-opacity:1;stroke:none" />
      <path
         id="path41"
         d="m 8.9999227,1039.3621 h 4.0001543 v 4.0002 H 8.9999227 Z M 11,1036.0287 c -2.9547808,0 -5.3335394,2.3787 -5.3335394,5.3335 0,2.9548 2.3787586,5.3335 5.3335394,5.3335 2.954781,0 5.333539,-2.3787 5.333539,-5.3335 0,-2.9548 -2.378758,-5.3335 -5.333539,-5.3335 z m 0,0.6667 c 2.585433,0 4.666847,2.0813 4.666847,4.6668 0,2.5855 -2.081414,4.6668 -4.666847,4.6668 -2.5854332,0 -4.666847,-2.0813 -4.666847,-4.6668 0,-2.5855 2.0814138,-4.6668 4.666847,-4.6668 z"
         class="ColorScheme-Text"
         style="color:#31363b;fill:#d2d2d2;fill-opacity:1"
         inkscape:connector-curvature="0" />
    </g>
  </g>
</svg>
